r,0,1,5,10,50
0.,0.,0.,0.,0.,0.
0.00001,0.00001,0.00012288205727444508,0.00027404379212089445,0.00038742741255621036,0.0008660831368869851
0.00002,0.00002,0.00017435595774162698,0.0003878143885933064,0.0005480875842417889,0.0012249081598226048
0.00003,0.00003,0.00021424285285628553,0.0004752893855326458,0.0006714908785679818,0.0015002999700059986
0.00004,0.00004,0.00024819347291981714,0.0005491812087098393,0.0007756287771866128,0.0017325126262166173
0.00005,0.00005,0.0002783882181415011,0.0006144102863722254,0.0008674675786448737,0.0019371370627810519
0.00006,0.00006,0.0003059411708155671,0.0006734983296193095,0.0009505787710652916,0.0021221687020592872
0.00007,0.00007,0.00033151168908501555,0.0007279423054061359,0.0010270832488167648,0.002292356865760652
0.00008,0.00008,0.0003555277766926236,0.0007787168933572714,0.0010983624174196785,0.0024507957891264625
0.00009,0.00009,0.00037828560638755477,0.0008264986388373546,0.001165375475973302,0.0025996345897067916
0.0001,0.0001,0.0004,0.0008717797887081349,0.0012288205727444509,0.0027404379212089443
0.00011,0.00011,0.0004208325082500163,0.000914931691439312,0.0012892245731446481,0.0028743868911473977
0.00012,0.00012,0.00044090815370097204,0.0009562426470305536,0.001346996659238619,0.003002399040767233
0.00013,0.00013,0.00046032597145935624,0.0009959417653658271,0.0014024621207005914,0.003125203993341875
0.00014,0.00014,0.0004791659420284376,0.0010342146779078317,0.0014558846108122718,0.0032433932848176155
0.00015,0.00015,0.00049749371855331,0.0010712142642814275,0.0015074813431681334,0.0033574543928399083
0.00016,0.00016,0.000515363949069005,0.0011070682002478438,0.001557433786714543,0.003467794688270919
0.00017,0.00017,0.0005328226721902889,0.0011418844074598795,0.0016058953888718904,0.003574758733117523
0.00018,0.00018,0.0005499090833947008,0.0011757550765359255,0.0016529972776747092,0.0036786410534326397
0.00019,0.00019,0.0005666568626602875,0.0012087596948939026,0.0016988525539316235,0.003779695754951713
0.0002,0.0002,0.0005830951894845301,0.0012409673645990857,0.0017435595774162697,0.0038781438859330636
0.00021,0.00021,0.0005992495306631453,0.0012724386036269098,0.0017872045210327776,0.003974179160531141
0.00022,0.00022,0.000615142259969188,0.001303226764611593,0.001829863382878624,0.004067972467950097
0.00023,0.00023,0.0006307931515164065,0.0013333791658789336,0.001871603590507349,0.004159675468110463
0.00024,0.00024,0.0006462197768561405,0.0013629380029920657,0.0019124852940611073,0.004249423490310186
0.00025,0.00025,0.0006614378277661477,0.0013919410907075054,0.0019525624189766636,0.004337337893224368
0.00026,0.00026,0.0006764613810115106,0.0014204224723651764,0.0019918835307316542,0.004423528003754469
0.00027,0.00027,0.0006913031173081748,0.0014484129245487974,0.002030492551082126,0.00450809272309255
0.00028,0.00028,0.0007059745037889117,0.0014759403781996075,0.0020684293558156635,0.004591121867256412
0.00029,0.00029,0.000720485947121802,0.0015030302724828933,0.0021057302771247794,0.0046726972938550175
0.0003,0.0003,0.0007348469228349532,0.0015297058540778353,0.002142428528562855,0.0047528938553264575
0.00031,0.00031,0.0007490660852021002,0.0015559884318336048,0.0021785545666794764,0.004831780210233077
0.00032,0.00032,0.0007631513611335565,0.0015818975946628154,0.0022141364004956876,0.004909419517621203
0.00033,0.00033,0.0007771100308193172,0.0016074513989542576,0.0022491998577271874,0.004985870034407235
0.00034,0.00034,0.0007909487973314077,0.0016326665305566842,0.002283768814919759,0.0050611856318455665
0.00035,0.00035,0.0008046738469715541,0.0016575584454250778,0.002317865397299852,0.005135416244083823
0.00036,0.00036,0.0008182909018191513,0.0016821414922651426,0.002351510153071851,0.005208608259410569
0.00037,0.00037,0.0008318052656722005,0.0017064290199126362,0.0023847222060441337,0.005280804862897321
0.00038,0.00038,0.0008452218643646176,0.0017304334717058616,0.0024175193897878052,0.005352046337617043
0.00039,0.00039,0.0008585452812752511,0.0017541664687252463,0.002449918365986916,0.005422370330399797
0.0004,0.0004,0.0008717797887081349,0.0017776388834631178,0.0024819347291981713,0.005491812087098393
0.00041,0.00041,0.0008849293757131131,0.0018008609052339384,0.002513583099879533,0.005560404661533188
0.00042,0.00042,0.000897997772825746,0.0018238420984284798,0.0025448772072538197,0.005628179101627808
0.00043,0.00043,0.0009109884741312593,0.001846591454545374,0.0025758299633322074,0.005695164615706907
0.00044,0.00044,0.0009239047569960878,0.0018691174387929722,0.002606453529223186,0.005761388721480265
0.00045,0.00045,0.0009367496997597596,0.0018914280319377735,0.002636759374687042,0.005826877379866509
0.00046,0.00046,0.0009495261976375374,0.0019135307679783988,0.0026667583317578672,0.005891655115500227
0.00047,0.00047,0.0009622369770487933,0.001935432768142567,0.002696460643139447,0.005955745125506967
0.00048,0.00048,0.0009748846085563153,0.0019571407716360107,0.0027258760059841315,0.006019169377912538
0.00049,0.00049,0.000987471518576612,0.0019786611635143597,0.0027550136115816197,0.006081948700868825
0.0005,0.0005,0.001,0.002,0.0027838821814150107,0.006144102863722254
0.00051,0.00051,0.0010124722218411723,0.002021163031524177,0.0028124899999822225,0.006205650650818172
0.00052,0.00052,0.0010248902380255167,0.0020421557237390105,0.002840844944730353,0.006266609928821165
0.00053,0.00053,0.0010372559954032565,0.0020629832767136043,0.0028689545134072797,0.006326997708234135
0.00054,0.00054,0.0010495713410721543,0.002083650642502241,0.0028968258490975948,0.006386830199715663
0.00055,0.00055,0.0010618380290797651,0.0021041625412500813,0.002924465763177952,0.00644612286572324
0.00056,0.00056,0.0010740577265678042,0.0021245234759823205,0.002951880756399215,0.006504890467947944
0.00057,0.00057,0.0010862320194139003,0.0021447377462058153,0.002979077038278802,0.006563147110952184
0.00058,0.00058,0.0010983624174196785,0.0021648094604375698,0.0030060605449657865,0.0066209062823755485
0.00059,0.00059,0.0011104503590885998,0.002184742547761635,0.0030328369557231396,0.006678180890032854
0.0006,0.0006,0.0011224972160321822,0.00220454076850486,0.0030594117081556705,0.006734983296193094
0.00061,0.00061,0.0011345042970390196,0.0022242077241121164,0.0030857900122983092,0.006791325349296705
0.00062,0.00062,0.0011464728518373211,0.0022437468662930764,0.0031119768636672096,0.00684721841334129
0.00063,0.00063,0.0011584040745784693,0.002263161505505076,0.0031379770553654467,0.006902673395141915
0.00064,0.00064,0.0011702991070662236,0.002282454818829937,0.0031637951893256308,0.006957700769650848
0.00065,0.00065,0.001182159041753689,0.0023016298572967812,0.0031894356867634126,0.007012310603502957
0.00066,0.00066,0.001193984924527944,0.002320689552697646,0.0032149027979085153,0.007066512576936378
0.00067,0.00067,0.0012057777573002415,0.002339636723938142,0.003240200611073333,0.007120316004223409
0.00068,0.00068,0.001217538500417954,0.0023584740829612695,0.0032653330611133683,0.007173729852733514
0.00069,0.00069,0.0012292680749128727,0.002377204240278904,0.0032903039373285868,0.007226762760738725
0.0007,0.0007,0.0012409673645990857,0.002395829710142188,0.0033151168908501557,0.007279423054061359
0.00071,0.00071,0.0012526372180324198,0.0024143529153791915,0.0033397754415529202,0.007331718761654733
0.00072,0.00072,0.0012642784503423287,0.0024327761919255954,0.003364282984530285,0.007383657630199277
0.00073,0.00073,0.0012758918449461147,0.0024511017930718424,0.00338864279616486,0.007435247137789033
0.00074,0.00074,0.0012874781551544866,0.0024693318934481045,0.0034128580398252724,0.007486494506776854
0.00075,0.00075,0.001299038105676658,0.00248746859276655,0.00343693177121688,0.007537406715840668
0.00076,0.00076,0.0013105723940324701,0.0025055139193387054,0.0034608669434117233,0.007587990511327752
0.00077,0.00077,0.0013220816918783804,0.0025234698333841837,0.003484666411580885,0.007638252417929117
0.00078,0.00078,0.0013335666462535721,0.0025413382301456844,0.0035083329374504925,0.007688198748731722
0.00079,0.00079,0.0013450278807519195,0.0025591209428239225,0.0035318691935008017,0.007737835614692264
0.0008,0.0008,0.0013564659966250536,0.0025768197453450254,0.0035552777669262355,0.0077871689335727145
0.00081,0.00081,0.0013678815738213598,0.0025944363549719233,0.003578561163372788,0.007836204438374485
0.00082,0.00082,0.0013792751719653334,0.0026119724347703215,0.003601721810467877,0.00788494768530521
0.00083,0.00083,0.0013906473312813715,0.0026294295959390125,0.0036247620611565665,0.00793340406130937
0.00084,0.00084,0.0014019985734657508,0.002646809400013533,0.0036476841968569595,0.007981578791191627
0.00085,0.00085,0.0014133294025102572,0.002664113360951444,0.003670490430446591,0.008029476944359452
0.00086,0.00086,0.0014246403054806501,0.0026813429471069157,0.003693182909090748,0.008077103441209604
0.00087,0.00087,0.0014359317532529185,0.002698499583101691,0.0037157637169228075,0.008124463059181204
0.00088,0.00088,0.0014472042012100435,0.002715584651598989,0.0037382348775859445,0.008171560438496433
0.00089,0.00089,0.0014584580899017977,0.0027325994949864135,0.0037605983566448573,0.008218400087608293
0.0009,0.0009,0.0014696938456699065,0.002749545416973504,0.003782856063875547,0.008264986388373545
0.00091,0.00091,0.0014809118812407443,0.0027664236841091422,0.0038050098554405875,0.008311323600967539
0.00092,0.00092,0.0014921125962875591,0.0027832355272236664,0.0038270615359567977,0.008357415868556501
0.00093,0.00093,0.0015032963779641059,0.0027999821428002,0.0038490128604617576,0.00840326722174179
0.00094,0.00094,0.001514463601411404,0.0028166646942793883,0.003870865536285134,0.008448881582789523
0.00095,0.00095,0.0015256146302392358,0.002833284313301438,0.003892621224830384,0.008494262769658117
0.00096,0.00096,0.0015367498169838838,0.0028498421008891,0.0039142815432720215,0.008539414499835455
0.00097,0.00097,0.0015478695035434998,0.0028663391285749843,0.003935848066173287,0.008584340393996501
0.00098,0.00098,0.001558974021592406,0.00288277643947636,0.003957322327028719,0.008629043979491586
0.00099,0.00099,0.001570063692975543,0.002899155049320405,0.00397870581973586,0.008673528693674796
0.001,0.001,0.0015811388300841897,0.0029154759474226506,0.004,0.008717797887081349